Vignette of the GetFeatistics package • GetFeatistics
…
Targeted analyses

To elaborate a targeted analyses, we need to organise the data in at
least two tables:

The first should contain the intensities of peak area. Samples in
rows, analysed compounds in columns. Hopefully you can export this table
from your chromatographic vendor software. Here we will be using the
df_example_targeted:

df_example_targeted
#> # A tibble: 83 × 7
#>    samples          molecule01 molecule01_IS molecule02 molecule02_IS molecule03
#>    <chr>                 <dbl>         <dbl>      <dbl>         <dbl>      <dbl>
#>  1 blank                     0     85009210.          0       512295.          2
#>  2 blank                    12     85058549.         12       513398.        474
#>  3 blank                    45     85544475.         45       512771.          2
#>  4 calibration_cur…        862     84525132.      64851       512250.     184514
#>  5 calibration_cur…     916839     83570564.   69002371       513334.    3926523
#>  6 calibration_cur…    2437097     84157195.  122279121       510583.   13916386
#>  7 calibration_cur…    8664951     84662094.  217377977       513191.   51540480
#>  8 calibration_cur…   10163671     85495504.  254976452       514245.   90682659
#>  9 calibration_cur…   13164865     84600992.  402513548       512262.  132142516
#> 10 calibration_cur…   16546462     85375590.  622652692       513297.  177157699
#> # ℹ 73 more rows
#> # ℹ 1 more variable: molecule04 <dbl>
…
the first column must be identical to the first column of the first
table;

the second column should contain the following: “blank”, “curve”,
“qc”, or “unknown”.

the third column should have the actual known values for “curve” and
“qc” samples.

Not clear? Have a taste of the
df_example_targeted_legend:

df_example_targeted_legend
#> # A tibble: 83 × 6
#>    samples               sample_type molecule01 molecule02 molecule03 molecule04
#>    <chr>                 <chr>            <dbl>      <dbl>      <dbl>      <dbl>
#>  1 blank                 blank               NA         NA         NA         NA
#>  2 blank                 blank               NA         NA         NA         NA
#>  3 blank                 blank               NA         NA         NA         NA
#>  4 calibration_curve_le… curve                0          0          0          0
#>  5 calibration_curve_le… curve               10        100          2         10
#>  6 calibration_curve_le… curve               30        200          8         30
#>  7 calibration_curve_le… curve               90        300         25         90
#>  8 calibration_curve_le… curve              120        400         50        120
#>  9 calibration_curve_le… curve              160        650         75        160
#> 10 calibration_curve_le… curve              200       1000        100        200
#> # ℹ 73 more rows
…
compound_legend: it’s the same table provided in the third
argument. I thought it was good to keep this valuable information!

summary_regression_models: stuff of the fitted linear
regression models such as: slope, intercept, r squared, and adjusted r
squared.

regression_models: a list with the all the fitted
regression models.

Amazing! Let’s check for example how the
results_concentrations table looks like:

TARGETED_EXAMPLE_RESULTS$results_concentrations
#> # A tibble: 83 × 6
#>    samples               sample_type molecule01 molecule02 molecule03 molecule04
#>    <chr>                 <chr>            <dbl>      <dbl>      <dbl>      <dbl>
#>  1 blank_1               blank          -0.0209      -9.32   -0.0993       -2.19
#>  2 blank_2               blank          -0.0207      -9.32   -0.0990       -2.18
#>  3 blank_3               blank          -0.0204      -9.32   -0.0993       -2.19
#>  4 calibration_curve_le… curve          -0.0105      -9.22    0.00449      -2.08
#>  5 calibration_curve_le… curve          11.2        103.      2.11          9.09
#>  6 calibration_curve_le… curve          29.6        191.      7.73         27.8 
#>  7 calibration_curve_le… curve         105.         346.     28.9         104.  
#>  8 calibration_curve_le… curve         121.         406.     50.9         123.  
#>  9 calibration_curve_le… curve         159.         649.     74.2         160.  
#> 10 calibration_curve_le… curve         198.        1007.     99.6         201.  
#> # ℹ 73 more rows
…
The first column are the samples,

the second column should contain “REMOVE” (to not consider at all
those samples, I suggest to do so for the first analyses of each batch),
“blank”, “QC”, “QC_half” (if you prepared some 50:50 dilution of pooled
QC samples) or “unknown”.

The third should be prepared only separated pooled QCs were
prepared. If you want more information of such an approach, please check
the idea behind it by reading this paper: https://doi.org/10.3390/molecules27082580.

df_example_qc_sampletype
#> # A tibble: 77 × 3
#>    samples            action  qc_group
#>    <chr>              <chr>   <chr>   
#>  1 QCpooled_tot01     REMOVE  NA      
#>  2 QCpooled_tot02     REMOVE  NA      
#>  3 blank_untargeted01 blank   NA      
#>  4 QCpooled_tot03     QC      tot     
#>  5 QCpooled_F3A01     QC      F3A     
#>  6 QCpooled_F3B01     QC      F3B     
#>  7 QCpooled_F3C01     QC      F3C     
#>  8 unkwon_sample_001  unknown NA      
#>  9 unkwon_sample_002  unknown NA      
#> 10 unkwon_sample_003  unknown NA      
#> # ℹ 67 more rows
…
