…
## 1. Targeted analyses

To elaborate a targeted analyses, we need to organise the data in at
least two tables:

1.  The first should contain the intensities of peak area. Samples in
    rows, analysed compounds in columns. Hopefully you can export this
    table from your chromatographic vendor software. Here we will be
    using the *df_example_targeted*:

``` r
df_example_targeted
#> # A tibble: 83 × 7
#>    samples          molecule01 molecule01_IS molecule02 molecule02_IS molecule03
#>    <chr>                 <dbl>         <dbl>      <dbl>         <dbl>      <dbl>
#>  1 blank                     0     85009210.          0       512295.          2
#>  2 blank                    12     85058549.         12       513398.        474
#>  3 blank                    45     85544475.         45       512771.          2
#>  4 calibration_cur…        862     84525132.      64851       512250.     184514
#>  5 calibration_cur…     916839     83570564.   69002371       513334.    3926523
#>  6 calibration_cur…    2437097     84157195.  122279121       510583.   13916386
#>  7 calibration_cur…    8664951     84662094.  217377977       513191.   51540480
#>  8 calibration_cur…   10163671     85495504.  254976452       514245.   90682659
#>  9 calibration_cur…   13164865     84600992.  402513548       512262.  132142516
#> 10 calibration_cur…   16546462     85375590.  622652692       513297.  177157699
#> # ℹ 73 more rows
#> # ℹ 1 more variable: molecule04 <dbl>
```

2.  We need to prepare a second table in which:

- the first column must be identical to the first column of the first
  table;
- the second column should contain the following: “blank”, “curve”,
  “qc”, or “unknown”.
- the third column should have the actual known values for “curve” and
  “qc” samples.

Not clear? Have a taste of the *df_example_targeted_legend*:

``` r
df_example_targeted_legend
#> # A tibble: 83 × 6
#>    samples               sample_type molecule01 molecule02 molecule03 molecule04
#>    <chr>                 <chr>            <dbl>      <dbl>      <dbl>      <dbl>
#>  1 blank                 blank               NA         NA         NA         NA
#>  2 blank                 blank               NA         NA         NA         NA
#>  3 blank                 blank               NA         NA         NA         NA
#>  4 calibration_curve_le… curve                0          0          0          0
#>  5 calibration_curve_le… curve               10        100          2         10
#>  6 calibration_curve_le… curve               30        200          8         30
#>  7 calibration_curve_le… curve               90        300         25         90
#>  8 calibration_curve_le… curve              120        400         50        120
#>  9 calibration_curve_le… curve              160        650         75        160
#> 10 calibration_curve_le… curve              200       1000        100        200
#> # ℹ 73 more rows
```
…
Amazing! Let’s check for example how the *results_concentrations* table
looks like:

``` r
TARGETED_EXAMPLE_RESULTS$results_concentrations
#> # A tibble: 83 × 6
#>    samples               sample_type molecule01 molecule02 molecule03 molecule04
#>    <chr>                 <chr>            <dbl>      <dbl>      <dbl>      <dbl>
#>  1 blank                 blank          -0.0209      -9.32   -0.0993       -2.19
#>  2 blank_2               blank          -0.0207      -9.32   -0.0990       -2.18
#>  3 blank_3               blank          -0.0204      -9.32   -0.0993       -2.19
#>  4 calibration_curve_le… curve          -0.0105      -9.22    0.00449      -2.08
#>  5 calibration_curve_le… curve          11.2        103.      2.11          9.09
#>  6 calibration_curve_le… curve          29.6        191.      7.73         27.8 
#>  7 calibration_curve_le… curve         105.         346.     28.9         104.  
#>  8 calibration_curve_le… curve         121.         406.     50.9         123.  
#>  9 calibration_curve_le… curve         159.         649.     74.2         160.  
#> 10 calibration_curve_le… curve         198.        1007.     99.6         201.  
#> # ℹ 73 more rows
```
…
First, you need to prepare a table containing the following information:

- The first column contains the sample names.
- The second column should contain “REMOVE” (to not consider at all
  those samples, I suggest to do so for the first analyses of each
  batch), “blank”, “QC”, “QC_half” (if you prepared some 50:50 dilution
  of pooled QC samples) or “unknown”.
- The third should be prepared only if separated pooled QCs were
  prepared. If you want more information of such an approach, please
  check the idea behind it by reading this paper:
  <https://doi.org/10.3390/molecules27082580>.

``` r
df_example_qc_sampletype
#> # A tibble: 77 × 3
#>    samples            action  qc_group
#>    <chr>              <chr>   <chr>   
#>  1 QCpooled_tot01     REMOVE  NA      
#>  2 QCpooled_tot02     REMOVE  NA      
#>  3 blank_untargeted01 blank   NA      
#>  4 QCpooled_tot03     QC      tot     
#>  5 QCpooled_F3A01     QC      F3A     
#>  6 QCpooled_F3B01     QC      F3B     
#>  7 QCpooled_F3C01     QC      F3C     
#>  8 unkwon_sample_001  unknown NA      
#>  9 unkwon_sample_002  unknown NA      
#> 10 unkwon_sample_003  unknown NA      
#> # ℹ 67 more rows
```
…
PCA_list$df_with_scores_table[,c("samples", "PC1", "PC2", "PC3", "PC4", "PC5", "PC6", "PC7", "PC8", "PC9")]
#> # A tibble: 52 × 10
#>    samples   PC1     PC2     PC3     PC4     PC5     PC6     PC7    PC8      PC9
#>    <chr>   <dbl>   <dbl>   <dbl>   <dbl>   <dbl>   <dbl>   <dbl>  <dbl>    <dbl>
#>  1 unkwon…  4.64  0.728  -0.213   0.0169  0.922  -0.715   0.0294 -0.153  0.540  
#>  2 unkwon…  3.44  0.262  -0.419  -0.0292  1.63   -0.424  -0.850  -0.504  0.00892
#>  3 unkwon…  3.86 -0.181  -0.365  -0.502  -0.529   1.39    0.0287 -0.447  0.138  
#>  4 unkwon…  5.01  1.08    0.0366 -0.416   0.0759  0.757   1.28   -0.343  0.413  
#>  5 unkwon…  3.60 -0.598  -0.877   0.376   0.570  -0.506  -0.341  -0.791  0.0229 
#>  6 unkwon…  3.80  0.356   0.0906 -0.611  -0.146   1.80   -0.272  -0.364  0.426  
#>  7 unkwon…  3.83 -0.600  -1.01   -1.42    1.06    0.441  -0.253   0.887 -0.648  
#>  8 unkwon…  3.72 -1.56   -1.81   -1.44   -1.94   -1.21   -0.325  -0.219  0.180  
#>  9 unkwon…  4.09 -1.31   -1.15    0.752  -0.420   0.465   0.410  -0.753 -0.217  
#> 10 unkwon…  3.85 -0.0997  0.0385  0.959   0.297  -0.0847 -0.302  -0.776 -0.259  
#> # ℹ 42 more rows
…
